…
For this graph I mostly followed the instructions from the museum lab, but I tried out some new commands (drop_NA and !=). I filtered so that I just had works by male or female artists (there were a few with no gender which gave me a third facet) and works that were either gifts or purchases (there were a few labeled exchanges).

When I was thinking about different things I could do with this data I started out by making a few tibbles to get a better sense of any patterns. As you can see, there are huge variations year by year. And HUGE differences in purchases vs. gifts. Overall, you can see that men are represented in both purchases and gifts by a really big ratio.

moma %>% 
  count(gift, year_acquired, sort = TRUE)

## # A tibble: 171 x 3
##    gift  year_acquired     n
##    <lgl>         <dbl> <int>
##  1 FALSE          1985    79
##  2 TRUE           1991    61
##  3 TRUE           2005    61
##  4 FALSE          1967    58
##  5 FALSE          1979    49
##  6 TRUE           2008    43
##  7 TRUE           1942    40
##  8 FALSE          1942    31
##  9 TRUE           1992    28
## 10 TRUE           2016    27
## # ... with 161 more rows
…
